[{
    "CC": "0",
    "CC_MARGIN": "0",
    "CC_ACTUAL_MARGIN_PERCENT": "0",
    "CC_TOTAL": "0",
    "CC_PROJECT": " ",
    "MONTH": "0",
    "CC_EXPENSE_PLANNED_MONTH": "0",
    "EXPECTED_MARGIN": "0",
    "CC_EXPENSE_PERFORMED_MONTH": "0.0",
    "TEAM_MEMBER_NAME": "",
    "ALLOC_PERCENTAGE": "0",
    "CC_STATUS": "",
    "CC_CLASSIFICATION": "",
    "CC_TYPE": "",
    "CC_FRIENDLY_NAME": "",
    "CC_OPEN_POSITION": "0",
    "PROJ_START_DATE": "0",
    "PROJ_END_DATE": "0",
    "CC_INCOME": "0",
    "CC_BASELINE_MONTH": "0",
    "CC_INCOME_REPLAN": ""
}]